{
    "$schema": "https://docs.renovatebot.com/renovate-schema.json",
    "extends": [
        "gitlab>additi/internal/dsi-devops-engineers/tools/tools-renovate"
    ],
    "assignees": [
        "arnaud.hatzenbuhler",
        "younessof2m"
    ]
}